---;IncValue;ChanceToSpawn;LifeTime;Cost
Bonus_Coins;1.000000;50.000000;0.000000;0
Bonus_Health;33.000000;10.000000;0.000000;0
Bonus_Respawn;1.000000;10.000000;0.000000;0
Bonus_IncSpeedWalk;2.000000;10.000000;10.000000;0
Bonus_IncDamage;4.000000;10.000000;10.000000;0
Bonus_IncProjectileSpeed;4.000000;10.000000;10.000000;0
Bonus_LittleRing;1.000000;0.000000;0.000000;5
Bonus_RingRing;1.700000;0.000000;0.000000;10
Bonus_MiddleRing;1.000000;0.000000;0.000000;15
Bonus_IndexRing;1.000000;0.000000;0.000000;20
Bonus_ThumbRing;10.000000;0.000000;0.000000;25
